{
  "sites": [
    {
      "key": "csp_Aidi",
      "name": "爱迪",
      "type": 3,
      "api": "csp_Aidi",
      "searchable": 1,
      "quickSearch": 0,
      "filterable": 1
    },
    {
      "key": "csp_Enlienli",
      "name": "嗯哩嗯哩",
      "type": 3,
      "api": "csp_Enlienli",
      "searchable": 1,
      "quickSearch": 0,
      "filterable": 1
    },
    {
      "key": "csp_Auete",
      "name": "Auete",
      "type": 3,
      "api": "csp_Auete",
      "searchable": 1,
      "quickSearch": 0,
      "filterable": 1
    },
    {
      "key": "csp_Cokemv",
      "name": "Cokemv",
      "type": 3,
      "api": "csp_Cokemv",
      "searchable": 1,
      "quickSearch": 0,
      "filterable": 1
    },
    {
      "key": "csp_Buka",
      "name": "真不卡(测试)",
      "type": 3,
      "api": "csp_Buka",
      "searchable": 0,
      "quickSearch": 0,
      "filterable": 1
    },
    {
      "key": "csp_Ysgc",
      "name": "影视工厂",
      "type": 3,
      "api": "csp_Ysgc",
      "searchable": 1,
      "quickSearch": 0,
      "filterable": 1
    },
    {
      "key": "csp_N0ys",
      "name": "90影视",
      "type": 3,
      "api": "csp_N0ys",
      "searchable": 1,
      "quickSearch": 0,
      "filterable": 0
    },
    {
      "key": "csp_Nekk",
      "name": "9E看看",
      "type": 3,
      "api": "csp_Nekk",
      "searchable": 1,
      "quickSearch": 0,
      "filterable": 1
    },
    {
      "key": "csp_Djx",
      "name": "瓜皮TV(爬虫)",
      "type": 3,
      "api": "csp_Djx",
      "searchable": 1,
      "quickSearch": 0,
      "filterable": 1
    },
    {
      "key": "csp_Imaple",
      "name": "枫林网(爬虫)",
      "type": 3,
      "api": "csp_Imaple",
      "searchable": 1,
      "quickSearch": 0,
      "filterable": 1
    },
    {
      "key": "csp_Jumi",
      "name": "剧迷(爬虫)",
      "type": 3,
      "api": "csp_Jumi",
      "searchable": 1,
      "quickSearch": 0,
      "filterable": 1
    },
    {
      "key": "csp_Nfx",
      "name": "NFXHD(爬虫)",
      "type": 3,
      "api": "csp_Nfx",
      "searchable": 1,
      "quickSearch": 0,
      "filterable": 1
    },
    {
      "key": "csp_Juhi",
      "name": "剧嗨(爬虫)",
      "type": 3,
      "api": "csp_Juhi",
      "searchable": 1,
      "quickSearch": 0,
      "filterable": 1
    },
    {
      "key": "csp_YydsAli1",
      "name": "YYDS阿里(爬虫)",
      "type": 3,
      "api": "csp_YydsAli1",
      "searchable": 1,
      "quickSearch": 0,
      "filterable": 0
    },
    {
      "key": "csp_EPangApp",
      "name": "阿房影视APP(爬虫)",
      "type": 3,
      "api": "csp_EPangApp",
      "searchable": 1,
      "quickSearch": 0,
      "filterable": 1
    },
    {
      "key": "csp_xpath_jpyszl",
      "name": "极品直链(XPMac)",
      "type": 3,
      "api": "csp_XPathMac",
      "searchable": 1,
      "quickSearch": 1,
      "filterable": 0,
      "ext": "https://gitee.com/daixiban/mycattv/raw/master/xpath/jpys.json"
    },
    {
      "key": "csp_xpath_cjt",
      "name": "CJT影视(XPMac)",
      "type": 3,
      "api": "csp_XPathMac",
      "searchable": 1,
      "quickSearch": 1,
      "filterable": 0,
      "ext": "https://gitee.com/daixiban/mycattv/raw/master/xpath/cjtys.json"
    },
    {
      "key": "csp_xpath_Jumi",
      "name": "剧迷(XPMac)",
      "type": 3,
      "api": "csp_XPathMac",
      "searchable": 1,
      "quickSearch": 1,
      "filterable": 0,
      "ext": "https://gitee.com/daixiban/mycattv/raw/master/xpath/jumi.json"
    },
    {
      "key": "csp_xpath_tvci",
      "name": "大师兄(XPMac)",
      "type": 3,
      "api": "csp_XPathMac",
      "searchable": 1,
      "quickSearch": 1,
      "filterable": 0,
      "ext": "https://gitee.com/daixiban/mycattv/raw/master/xpath/tvci.json"
    },    
    {
      "key": "csp_xpath_duboku",
      "name": "独播库(XPMac)",
      "type": 3,
      "api": "csp_XPathMac",
      "searchable": 1,
      "quickSearch": 1,
      "filterable": 0,
      "ext": "https://gitee.com/daixiban/mycattv/raw/master/xpath/duboku3.json"
    },
    {
      "key": "csp_xpath_o8tv ",
      "name": "555电影(XPMac)",
      "type": 3,
      "api": "csp_XPathMac",
      "searchable": 1,
      "quickSearch": 1,
      "filterable": 0,
      "ext": "https://gitee.com/daixiban/mycattv/raw/master/xpath/o8tv.json"
    },
    {
      "key": "csp_xpath_sky4k",
      "name": "天空4K(XPMac)",
      "type": 3,
      "api": "csp_XPathMac",
      "searchable": 1,
      "quickSearch": 1,
      "filterable": 0,
      "ext": "https://gitee.com/daixiban/mycattv/raw/master/xpath/sky4k.json"
    },
    {
      "key": "csp_xpath_miniku",
      "name": "迷你库(XPMac)",
      "type": 3,
      "api": "csp_XPathMac",
      "searchable": 1,
      "quickSearch": 1,
      "filterable": 0,
      "ext": "https://gitee.com/daixiban/mycattv/raw/master/xpath/miniku.json"
    },
    {
      "key": "csp_xpath_pianba",
      "name": "片吧(XPMac)",
      "type": 3,
      "api": "csp_XPathMac",
      "searchable": 1,
      "quickSearch": 1,
      "filterable": 0,
      "ext": "https://gitee.com/daixiban/mycattv/raw/master/xpath/pianba.json"
    },
    {
     "key":"csp_xpath_Ole",
     "name":"欧乐(XPMac)",
     "type":3,
     "api":"csp_XPathMac",
     "searchable":1,
     "quickSearch":1,
     "filterable": 0,
     "ext":"https://gitee.com/daixiban/mycattv/raw/master/xpath/olevod.json"
    },
    {
     "key": "csp_xpath_4kyu",
     "name": "一只鱼4K(XPMac)",
     "type": 3,
     "api": "csp_XPathMac",
     "searchable": 1,
     "quickSearch": 1,
     "filterable": 0,
     "ext": "https://gitee.com/daixiban/mycattv/raw/master/xpath/4kyu.json"
    },
    {
     "key": "csp_xpath_lezhutv",
     "name": "乐猪TV(XPMac)",
     "type": 3,
     "api": "csp_XPathMac",
     "searchable": 1,
     "quickSearch": 1,
     "filterable": 0,
     "ext": "https://gitee.com/daixiban/mycattv/raw/master/xpath/lezhutv.json"
    },
    {
     "key": "csp_xpath_onedianshi",
     "name": "One影视(XPMac)",
     "type": 3,
     "api": "csp_XPathMac",
     "searchable": 1,
     "quickSearch": 1,
     "filterable": 0,
     "ext": "https://gitee.com/daixiban/mycattv/raw/master/xpath/onedianshi.json"
    },
    {
     "key": "csp_xpath_gimytv",
     "name": "GimyTV(XPMac)",
     "type": 3,
     "api": "csp_XPathMac",
     "searchable": 1,
     "quickSearch": 1,
     "filterable": 0,
     "ext": "https://gitee.com/daixiban/mycattv/raw/master/xpath/gimytv.json"
    },
    {
     "key": "csp_xpath_lranc",
     "name": "天天影視(XPMac)",
     "type": 3,
     "api": "csp_XPathMac",
     "searchable": 1,
     "quickSearch": 1,
     "filterable": 0,
     "ext": "https://gitee.com/daixiban/mycattv/raw/master/xpath/lranc.json"
    },
    {
      "key": "csp_xpath_nfmov",
      "name": "NFMovies(XPath)",
      "type": 3,
      "api": "csp_XPathNfMov",
      "searchable": 1,
      "quickSearch": 1,
      "filterable": 0,
      "ext": "https://gitee.com/daixiban/mycattv/raw/master/xpath/nfmovie.json"
    },
    {
      "key": "csp_xpath_saohuotv",
      "name": "骚火电影(XPath)",
      "type": 3,
      "api": "csp_XPath",
      "searchable": 1,
      "quickSearch": 1,
      "filterable": 0,
      "ext": "https://gitee.com/daixiban/mycattv/raw/master/xpath/saohuotv2.json"
    },
    {
      "key": "csp_xpath_94sm",
      "name": "94神马(XPath)",
      "type": 3,
      "api": "csp_XPath",
      "searchable": 1,
      "quickSearch": 1,
      "filterable": 0,
      "ext": "https://gitee.com/daixiban/mycattv/raw/master/xpath/94sm.json"
    },
    {
      "key": "csp_xpath_jpys",
      "name": "极品影视(XPath)",
      "type": 3,
      "api": "csp_XPath",
      "searchable": 1,
      "quickSearch": 1,
      "filterable": 0,
      "ext": "https://gitee.com/daixiban/mycattv/raw/master/xpath/jpys.json"
    },
    {
      "key": "csp_xpath_age",
      "name": "AGE动漫(XPath)",
      "type": 3,
      "api": "csp_XPath",
      "searchable": 1,
      "quickSearch": 1,
      "filterable": 0,
      "ext": "https://gitee.com/daixiban/mycattv/raw/master/xpath/agefans.json"
    },
    {
      "key": "csp_xpath_dm84",
      "name": "动漫巴士(XPath)",
      "type": 3,
      "api": "csp_XPath",
      "searchable": 1,
      "quickSearch": 1,
      "filterable": 0,
      "ext": "https://gitee.com/daixiban/mycattv/raw/master/xpath/dm84.json"
    },
    {
      "key": "csp_xpath_egg",
      "name": "蛋蛋影院(XPath)",
      "type": 3,
      "api": "csp_XPathEgg",
      "searchable": 1,
      "quickSearch": 1,
      "filterable": 0,
      "ext": "https://gitee.com/daixiban/mycattv/raw/master/xpath/egg.json"
    },
    {
      "key": "csp_xpath_fantuan",
      "name": "饭团(XPMac)",
      "type": 3,
      "api": "csp_XPathMac",
      "searchable": 1,
      "quickSearch": 1,
      "filterable": 0,
      "ext": "https://gitee.com/daixiban/mycattv/raw/master/xpath/fantuan.json"
    },
    {
      "key": "csp_xpath_98net ",
      "name": "98net(XPath)",
      "type": 3,
      "api": "csp_XPath",
      "searchable": 1,
      "quickSearch": 1,
      "filterable": 0,
      "ext": "https://gitee.com/daixiban/mycattv/raw/master/xpath/98net.json"
    },
    {
      "key": "csp_xpath_vipmv",
      "name": "追剧达人(XPMac)",
      "type": 3,
      "api": "csp_XPathMac",
      "searchable": 1,
      "quickSearch": 1,
      "filterable": 0,
      "ext": "https://gitee.com/daixiban/mycattv/raw/master/xpath/vipmv.json"
    },
    {
     "key": "csp_xpath_nfuxs",
     "name": "南府影视(XPath)",
     "type": 3,
     "api": "csp_XPath",
     "searchable": 1,
     "quickSearch": 1,
     "filterable": 0,
     "ext": "https://gitee.com/daixiban/mycattv/raw/master/xpath/nfuxs.json"
    },
    {
     "key": "csp_xpath_newfii",
     "name": "奈落影院(XPath)",
     "type": 3,
     "api": "csp_XPath",
     "searchable": 1,
     "quickSearch": 1,
     "filterable": 0,
     "ext": "https://gitee.com/daixiban/mycattv/raw/master/xpath/newfii.json"
    },
    {
     "key":"csp_xpath_axx",
     "name":"爱西西(XPath)",
     "type":3,"api":"csp_XPath",
     "searchable":1,"quickSearch":1,
     "filterable": 0,
     "ext":"https://gitee.com/daixiban/mycattv/raw/master/xpath/aixixi.json"
    },
    {
     "key": "csp_xpath_dm84",
     "name": "动漫巴士(XPath)",
     "type": 3,
     "api": "csp_XPath",
     "searchable": 1,
     "quickSearch": 1,
     "filterable": 0,
     "ext": "https://gitee.com/daixiban/mycattv/raw/master/xpath/dm84.json"
    },
    {
     "key": "csp_xpath_yinghuacd",
     "name": "樱花动漫(XPath)",
     "type": 3,
     "api": "csp_XPath",
     "searchable": 1,
     "quickSearch": 1,
     "filterable": 0,
     "ext": "https://gitee.com/daixiban/mycattv/raw/master/xpath/yinghuacd.json"
    },
    {
     "key": "csp_xpath_Bde4",
     "name": "哔嘀影视(XPath)",
     "type": 3,
     "api": "csp_XPathBde4",
     "searchable": 1,
     "quickSearch": 1,
     "filterable": 0,
     "ext": "https://gitee.com/daixiban/mycattv/raw/master/xpath/bde4.json"
    },
    {
     "key": "csp_xpath_xkys",
     "name": "星空影视(XPMac)",
     "type": 3,
     "api": "csp_XPathMac",
     "searchable": 1,
     "quickSearch": 1,
     "filterable": 0,
     "ext": "https://gitee.com/daixiban/mycattv/raw/master/xpath/xkys.json"
    },
    {
     "key": "csp_xpath_dd520",
     "name": "多多影视(XPath)",
     "type": 3,
     "api": "csp_XPath",
     "searchable": 1,
     "quickSearch": 1,
     "filterable": 0,
     "ext": "https://gitee.com/daixiban/mycattv/raw/master/xpath/dd520.json"
    },
    {
     "key": "csp_xpath_1010dy",
     "name": "双十电影(XPath)",
     "type": 3,
     "api": "csp_XPath",
     "searchable": 1,
     "quickSearch": 1,
     "filterable": 0,
     "ext": "https://gitee.com/daixiban/mycattv/raw/master/xpath/1010dy.json"
    },
    {
      "key": "csp_xpath_rrys",
      "name": "人人影视(XPMac)",
      "type":3,
      "api":"csp_XPathMac",
      "searchable":1,
      "quickSearch":1,
      "filterable":0,
     "ext":"https://gitee.com/daixiban/mycattv/raw/master/xpath/rrys.json"
    },
    {
      "key": "csp_xpath_smdyy",
      "name": "神马影院(XPMac)",
      "type": 3,
      "api": "csp_XPathMac",
      "searchable": 1,
      "quickSearch": 1,
      "filterable": 0,
      "ext": "https://gitee.com/daixiban/mycattv/raw/master/xpath/smdyy.json"
    },
    {
      "key": "csp_xpath_cctv68",
      "name": "狐狸影视(XPMac)",
      "type": 3,
      "api": "csp_XPathMac",
      "searchable": 1,
      "quickSearch": 1,
      "filterable": 0,
      "ext": "https://gitee.com/daixiban/mycattv/raw/master/xpath/cctv68.json"
    },
    {
      "key": "OmoFun动漫",
      "name": "OmoFun动漫",
      "type": 0,
      "api": "https://omofun.com/api.php/provide/vod/at/xml",
      "searchable": 1,
      "quickSearch": 1,
      "filterable": 0
    },
    {
      "key": "4K影院",
      "name": "4K影院",
      "type": 0,
      "api": "http://www.dijiaxia.com/api.php/provide/vod/at/xml",
      "playUrl": ""
    },
    {
      "key": "红牛资源",
      "name": "红牛资源",
      "type": 0,
      "api": "https://www.hongniuzy.com/inc/hnm3u8.php",
      "playUrl": "https://www.tutukiki.com/m3u8/?url=",
      "searchable": 1,
      "filterable": 0,
      "categories": []
    },
    {
      "key": "极品资源",
      "name": "极品资源",
      "type": 0,
      "api": "https://www.jpysvip.net/api.php/provide/vod/at/xml/",
      "categories": [
        "动作片",
        "喜剧片",
        "爱情片",
        "科幻片",
        "恐怖片",
        "剧情片",
        "战争片",
        "国产剧",
        "香港剧",
        "韩国剧",
        "欧美剧",
        "日本剧",
        "台湾剧",
        "泰国剧",
        "综艺",
        "动漫"
      ]
    },
    {
      "key": "77影院",
      "name": "77影院",
      "type": 0,
      "api": "http://kunyu77.com/api.php/provide/vod/at/xml",
      "playUrl": "",
      "categories": []
    },
    {
      "key": "融兴资源",
      "name": "融兴资源",
      "type": 0,
      "api": "https://www.rongxingvr.com/api.php/provide/vod/at/xml",
      "playUrl": "https://vip.bljiex.com/?v=",
      "categories": []
    },
    {
      "key": "蜂鸟视频",
      "name": "蜂鸟视频",
      "type": 0,
      "api": "https://v.fnsp0.com/api.php/provide/vod/at/xml",
      "playUrl": "",
      "categories": []
    },
    {
      "key": "蜗牛呀资源",
      "name": "蜗牛呀资源",
      "type": 0,
      "api": "http://snailkya.xyz/api.php/provide/vod/at/xml",
      "playUrl": "",
      "categories": []
    },
    {
      "key": "趣看视频",
      "name": "趣看视频_M",
      "type": 0,
      "api": "http://qkmp4.cn/api.php/provide/vod/at/xml/",
      "playUrl": "",
      "categories": []
    },
    {
      "key": "淘片直解",
      "name": "淘片直解_M",
      "type": 0,
      "api": "https://taopianzy.com/home/cjapi/c4ca4238a0b923820dcc509a6f75849b/vod/xml",
      "playUrl": "",
      "categories": []
    },
    {
      "key": "热播剧",
      "name": "热播剧_M",
      "type": 1,
      "api": "http://app.reboju.net/api.php/provide/vod",
      "playUrl": "https://m3u8.cachecha.com/?url=",
      "categories": []
    },
    {
      "key": "不开资源",
      "name": "不开资源_M",
      "type": 0,
      "api": "http://c.bukai.men/api.php/provide/vod/at/xml",
      "playUrl": "",
      "categories": []
    },
    {
      "key": "人人迷蓝光",
      "name": "人人迷蓝光",
      "type": 1,
      "api": "https://kuu.renrenmi.cc/api.php/provide/vod/?ac=list",
      "playUrl": "https://jx.renrenmi.cc/?url=",
      "searchable": 1,
      "filterable": 0
    },
    {
      "key": "嘀哩嘀哩",
      "name": "嘀哩嘀哩",
      "type": 1,
      "api": "http://api.diliktv.xyz/api.php/provide/vod/?ac=list",
      "playUrl": "https://app.diliktv.xyz/jx/?url=",
      "searchable": 1,
      "filterable": 0
    },
    {
      "key": "成人福利",
      "name": "成人福利",
      "type": 0,
      "api": "http://lbapiby.com/api.php/provide/vod/at/xml/",
      "searchable": 1,
      "categories": [
        "亚洲情色",
        "国产主播",
        "国产自拍",
        "无码专区",
        "欧美性爱",
        "熟女人妻",
        "强奸乱伦",
        "巨乳美乳",
        "中文字幕",
        "制服诱惑",
        "女同性恋",
        "卡通动画",
        "视频伦理",
        "少女萝莉",
        "重口色情",
        "人兽性交"
      ]
    },
    {
      "key": "博天堂",
      "name": "博天堂18x",
      "type": 0,
      "api": "http://bttcj.com/inc/sapi.php",
      "playUrl": "",
      "searchable": 1,
      "categories": []
    },
    {
      "key": "鲨鱼18+",
      "name": "鲨鱼18+",
      "type": 0,
      "api": "https://shayuapi.com/api.php/Seacms/vod",
      "playUrl": "",
      "searchable": 1,
      "categories": []
    },
    {
      "key": "芒果18+",
      "name": "芒果18+",
      "type": 0,
      "api": "https://www.mgav1.cc/api.php/provide/vod/at/xml/",
      "playUrl": "https://mgm3u8-player.com/player/DPm3u8.php?url=",
      "searchable": 1,
      "categories": []
    },
    {
      "key": "天堂资源",
      "name": "天堂资源",
      "type": 0,
      "api": "http://vipmv.cc/api.php/provide/vod/at/xml",
      "playUrl": "",
      "categories": []
    },
    {
      "key": "MBO影视",
      "name": "MBO影视_MB",
      "type": 0,
      "api": "https://www.mbomovie.com/api.php/provide/vod/at/xml",
      "playUrl": "",
      "categories": []
    },
    {
      "key": "飘花影视",
      "name": "飘花影视_M",
      "type": 0,
      "api": "http://www.zzrhgg.com/api.php/provide/vod/at/xml",
      "playUrl": ""
    },
    {
      "key": "三九美剧",
      "name": "三九美剧_M",
      "type": 0,
      "api": "https://www.999meiju.com/api.php/provide/vod/at/xml",
      "playUrl": "",
      "categories": []
    },
    {
      "key": "BL影视",
      "name": "BL影视_MB",
      "type": 0,
      "api": "https://bljiex.com/api.php/provide/vod/at/xml",
      "playUrl": "https://vip.bljiex.com/?v=",
      "categories": []
    },
    {
      "key": "畅视资源",
      "name": "畅视资源_M",
      "type": 1,
      "api": "http://app.reboju.net/api.php/provide/vod",
      "playUrl": "",
      "categories": []
    },
    {
      "key": "lehoo资源",
      "name": "lehoo资源_M",
      "type": 0,
      "api": "https://www.lehootv.com/api.php/provide/vod/at/xml",
      "playUrl": "",
      "categories": []
    },
    {
      "key": "快播云",
      "name": "快播云",
      "type": 0,
      "api": "http://www.kuaibozy.com/api.php/provide/vod/at/xml/",
      "playUrl": "",
      "categories": [
        "国产剧",
        "港台剧",
        "日韩剧",
        "欧美剧",
        "泰剧",
        "综艺",
        "动漫",
        "动作片",
        "喜剧片",
        "爱情片",
        "科幻片",
        "恐怖片",
        "剧情片",
        "战争片",
        "纪录片"
      ]
    },
    {
      "key": "柚子资源",
      "name": "柚子资源",
      "type": 0,
      "api": "http://tv.aitesucai.xyz/api.php/provide/vod/at/xml",
      "playUrl": "",
      "categories": [
        "综艺",
        "动漫",
        "动作",
        "喜剧",
        "爱情",
        "科幻",
        "恐怖",
        "剧情",
        "战争",
        "大陆剧",
        "港台剧",
        "日韩剧",
        "欧美剧",
        "纪录",
        "海外剧",
        "蓝光电影",
        "蓝光电视剧",
        "蓝光动漫"
      ]
    },
    {
      "key": "安逸影院",
      "name": "安逸影院",
      "type": 0,
      "api": "http://dy.51isu.com:11801/api.php/provide/vod/at/xml",
      "playUrl": "",
      "categories": [
        "综艺",
        "动漫",
        "动作片",
        "喜剧片",
        "爱情片",
        "科幻片",
        "恐怖片",
        "剧情片",
        "战争片",
        "国产剧",
        "港台剧",
        "日韩剧",
        "欧美剧",
        "福利"
      ]
    },
    {
      "key": "2A资源站",
      "name": "2A资源站",
      "type": 1,
      "api": "http://zy.zcocc.com/api.php/provide/vod/",
      "playUrl": "",
      "categories": [
        "综艺",
        "动作片",
        "喜剧片",
        "爱情片",
        "科幻片",
        "恐怖片",
        "剧情片",
        "战争片",
        "国产剧",
        "香港剧",
        "韩国剧",
        "欧美剧",
        "微电影",
        "纪录片",
        "论理片",
        "冒险片",
        "悬疑片",
        "犯罪片",
        "灾难片",
        "魔幻片",
        "青春片",
        "音乐片",
        "其他片",
        "惊悚片",
        "动画片",
        "奇幻片",
        "台湾剧",
        "日本剧",
        "其他剧",
        "国产动漫",
        "日本动漫",
        "欧美动漫",
        "其他动漫"
      ]
    },
    {
      "key": "蘑菇资源",
      "name": "蘑菇资源",
      "type": 0,
      "api": "http://www.moguzyw.com:520/moguzy.php/provide/vod/at/xml/",
      "playUrl": "",
      "categories": [
        "综艺",
        "动漫",
        "动作片",
        "喜剧片",
        "爱情片",
        "科幻片",
        "恐怖片",
        "剧情片",
        "战争片",
        "国产剧",
        "港台剧",
        "日韩剧",
        "欧美剧",
        "犯罪片",
        "奇幻片",
        "悬疑片",
        "动画片",
        "惊悚片",
        "古装片",
        "泰国剧",
        "其他剧"
      ]
    },
    {
      "key": "88资源",
      "name": "88资源",
      "type": 0,
      "api": "http://www.88zyw.net/inc/api.php",
      "playUrl": "",
      "categories": [
        "综艺",
        "动作片",
        "喜剧片",
        "爱情片",
        "科幻片",
        "恐怖片",
        "剧情片",
        "战争片",
        "国产剧",
        "港台剧",
        "日韩剧",
        "欧美剧",
        "东南亚剧",
        "论理",
        "性感",
        "日本动漫",
        "纪录片",
        "国产动漫",
        "欧美动漫",
        "里番",
        "欧美片"
      ]
    },
    {
      "key": "39影视",
      "name": "39影视",
      "type": 0,
      "api": "https://www.39kan.com/api.php/provide/vod/at/xml",
      "playUrl": "",
      "categories": [
        "综艺",
        "动漫",
        "动作片",
        "喜剧片",
        "爱情片",
        "科幻片",
        "恐怖片",
        "剧情片",
        "战争片",
        "国产剧",
        "港台剧",
        "日韩剧",
        "欧美剧"
      ]
    },
    {
      "key": "橘猫影视",
      "name": "橘猫影视_M",
      "type": 0,
      "api": "http://www.zitv.cc/api.php/provide/vod/at/xml/",
      "playUrl": "",
      "categories": [
        "综艺",
        "动作片",
        "喜剧片",
        "爱情片",
        "科幻片",
        "恐怖片",
        "剧情片",
        "战争片",
        "国产剧",
        "港剧",
        "日剧",
        "欧美剧",
        "台剧",
        "韩剧",
        "其他动漫",
        "伦理",
        "海外剧",
        "纪录片",
        "国产动漫",
        "日本动漫",
        "欧美动漫",
        "动画电影",
        "篮球",
        "足球",
        "网球"
      ]
    },
    {
      "key": "豆瓣云",
      "name": "豆瓣云_M",
      "type": 1,
      "api": "http://api.dbyunzy.com/api.php/provide/vod/?ac=list",
      "playUrl": "",
      "categories": [
        "动作片",
        "喜剧片",
        "爱情片",
        "科幻片",
        "恐怖片",
        "剧情片",
        "战争片",
        "国产剧",
        "香港剧",
        "韩国剧",
        "欧美剧",
        "微电影",
        "纪录片",
        "伦理片",
        "冒险片",
        "悬疑片",
        "犯罪片",
        "灾难片",
        "魔幻片",
        "青春片",
        "音乐片",
        "其他片",
        "惊悚片",
        "动画片",
        "奇幻片",
        "台湾剧",
        "日本剧",
        "其他剧",
        "国产动漫",
        "日本动漫",
        "欧美动漫",
        "其他动漫"
      ]
    },
    {
      "key": "追剧吧",
      "name": "追剧吧",
      "type": 0,
      "api": "http://www.huaxiab.com/api.php/provide/vod/at/xml",
      "playUrl": "",
      "categories": [
        "电影",
        "综艺",
        "动漫",
        "动作片",
        "喜剧片",
        "爱情片",
        "科幻片",
        "恐怖片",
        "剧情片",
        "战争片",
        "国产剧",
        "港台剧",
        "日韩剧",
        "欧美剧",
        "悬疑片",
        "灾难片",
        "犯罪片",
        "其他片",
        "泰国剧",
        "论理片"
      ]
    },
    {
      "key": "csp_appys_iptv_冷月TV",
      "name": "冷月TV(M)",
      "type": 3,
      "api": "csp_AppYs",
      "playUrl": " ",
      "searchable": 1,
      "quickSearch": 0,
      "filterable": 1,
      "ext": "iptv_冷月TV"
    },
    {
      "key": "csp_appys_xiaogui_5060影院",
      "name": "5060影院(M)",
      "type": 3,
      "api": "csp_AppYs",
      "searchable": 1,
      "quickSearch": 0,
      "filterable": 1,
      "ext": "xiaogui_5060影院"
    },
    {
      "key": "csp_appys_xiaogui_one影视",
      "name": "one影视(M)",
      "type": 3,
      "api": "csp_AppYs",
      "searchable": 1,
      "quickSearch": 0,
      "filterable": 1,
      "ext": "xiaogui_one影视"
    },
    {
      "key": "csp_appys_xiaogui_迷你库",
      "name": "迷你库(M)",
      "type": 3,
      "api": "csp_AppYs",
      "searchable": 1,
      "quickSearch": 0,
      "filterable": 1,
      "ext": "xiaogui_迷你库"
    },
    {
      "key": "csp_appys_v1_麻瓜视频",
      "name": "麻瓜视频(M)",
      "type": 3,
      "api": "csp_AppYs",
      "searchable": 1,
      "quickSearch": 0,
      "filterable": 1,
      "ext": "v1_麻瓜视频"
    },
    {
      "key": "csp_appys_xiaogui_思古影视",
      "name": "思古影视(M)",
      "type": 3,
      "api": "csp_AppYs",
      "searchable": 1,
      "quickSearch": 0,
      "filterable": 1,
      "ext": "xiaogui_思古影视"
    }
  ],
  "lives": [
    {
      "group": "自定频道",
      "channels": [
        {
          "name": "凤凰中文",
          "urls": [
            "http://223.110.235.3/ott.js.chinamobile.com/PLTV/3/224/3221228057/index.m3u8",
            "http://117.169.124.37:6610/ysten-businessmobile/live/fhchinese/1.m3u8",
            "http://223.110.236.2/ott.js.chinamobile.com/PLTV/3/224/3221228060/index.m3u8",
            "http://183.207.249.35/PLTV/3/224/3221226975/index.m3u8"
          ]
        },
        {
          "name": "凤凰资讯",
          "urls": [
            "http://223.110.235.13/ott.js.chinamobile.com/PLTV/3/224/3221228098/index.m3u8",
            "http://183.207.249.35/PLTV/3/224/3221226923/index.m3u8",
            "http://117.169.124.37:6610/ysten-businessmobile/live/fhzixun/1.m3u8",
            "https://d158f3mdhc5kf4.cloudfront.net/p1_cbr_lo_720p.m3u8"
          ]
        },
        {
          "name": "凤凰测试",
          "urls": [
            "http://124.232.231.246:6610/000000001001/201500000231/index.m3u8?IASHttpSessionId=SLB2046220190906022827233263&m3u8_level=2",
            "http://124.232.231.246:6610/000000001001/201500000230/index.m3u8?IASHttpSessionId=SLB2046220190906022827233263&m3u8_level=2"
          ]
        }
      ]
    },
    {
      "group": "少儿频道",
      "channels": [
        {
          "name": "狮子王国",
          "urls": [
            "https://newcntv.qcloudcdn.com/asp/hls/850/0303000a/3/default/c2e7e767f3144bed959ef20b8b961fe5/850.m3u8"
          ]
        },
        {
          "name": "倒霉特熊",
          "urls": [
            "https://newcntv.qcloudcdn.com/asp/hls/1200/0303000a/3/default/87f87ba569c147e3805f80e4844d2de9/1200.m3u8"
          ]
        },
        {
          "name": "熊大熊二",
          "urls": [
            "https://newcntv.qcloudcdn.com/asp/hls/1200/0303000a/3/default/1733da751de64e6e910abda889d87a26/1200.m3u8"
          ]
        },
        {
          "name": "熊大过年",
          "urls": [
            "https://newcntv.qcloudcdn.com/asp/hls/1200/0303000a/3/default/7ae265653fe149069c3b53e31caaf060/1200.m3u8"
          ]
        },
        {
          "name": "云朵妈妈",
          "urls": [
            "https://newcntv.qcloudcdn.com/asp/hls/1200/0303000a/3/default/d8ad434c6b08421a927557a4d98da65c/1200.m3u8"
          ]
        },
        {
          "name": "猪侠英雄",
          "urls": [
            "https://newcntv.qcloudcdn.com/asp/hls/1200/0303000a/3/default/0f03b08bc7b042358144617000fd2931/1200.m3u8"
          ]
        },
        {
          "name": "反转星球",
          "urls": [
            "https://newcntv.qcloudcdn.com/asp/hls/1200/0303000a/3/default/3ccdecc7d6e341c1920ad4eac5d82f38/1200.m3u8"
          ]
        },
        {
          "name": "CETV教育",
          "urls": [
            "http://58.200.190.80/hls/hls25.m3u8"
          ]
        },
        {
          "name": "新科动漫",
          "urls": [
            "http://cctvtxyh5ca.liveplay.myqcloud.com/live/xinkedongman_2_hd.m3u8"
          ]
        },
        {
          "name": "优优宝贝",
          "urls": [
            "http://112.17.40.140/PLTV/88888888/224/3221226829/index.m3u8"
          ]
        },
        {
          "name": "哈哈炫动",
          "urls": [
            "http://223.110.245.163/ott.js.chinamobile.com/PLTV/3/224/3221226388/index.m3u8",
            "http://183.207.249.7/PLTV/2/224/3221226047/index.m3u8",
            "http://101.71.255.229:6610/zjhs/2/10051/index.m3u8?virtualDomain=zjhs.live_hls.zte.com",
            "http://ywotttv.bj.chinamobile.com/PLTV/88888888/224/3221225909/1.m3u8"
          ]
        },
        {
          "name": "亲子启蒙",
          "urls": [
            "http://39.134.39.37/PLTV/88888888/224/3221226314/index.m3u8"
          ]
        }
      ]
    },
    {
      "group": "央视",
      "channels": [
        {
          "name": "CCTV-1",
          "urls": [
            "http://183.207.248.71:80/cntv/live1/HD-8000k-1080P-cctv1/HD-8000k-1080P-cctv1",
            "http://39.134.24.24/PLTV/88888888/224/3221225684/index.m3u8",
            "http://39.134.24.24/PLTV/88888888/224/3221225829/index.m3u8",
            "http://39.134.24.24/PLTV/88888888/224/3221225652/index.m3u8",
            "http://39.134.24.24/PLTV/88888888/224/3221226024/index.m3u8"
          ]
        },
        {
          "name": "CCTV-2",
          "urls": [
            "http://183.207.248.71:80/cntv/live1/HD-8000k-1080P-cctv2/HD-8000k-1080P-cctv2",
            "http://39.134.24.24/PLTV/88888888/224/3221225686/index.m3u8"
          ]
        },
        {
          "name": "CCTV-3",
          "urls": [
            "http://183.207.248.71:80/cntv/live1/HD-8000k-1080P-cctv3/HD-8000k-1080P-cctv3",
            "http://39.134.24.24/PLTV/88888888/224/3221226023/index.m3u8",
            "http://39.134.24.24/PLTV/88888888/224/3221225630/index.m3u8"
          ]
        },
        {
          "name": "CCTV-4",
          "urls": [
            "http://183.207.248.71:80/cntv/live1/cctv-4/cctv-4",
            "http://39.134.24.24/PLTV/88888888/224/3221225662/index.m3u8"
          ]
        },
        {
          "name": "CCTV-5",
          "urls": [
            "http://183.207.248.71:80/cntv/live1/HD-8000k-1080P-cctv5/HD-8000k-1080P-cctv5",
            "http://39.134.24.24/PLTV/88888888/224/3221226025/index.m3u8",
            "http://39.134.24.24/PLTV/88888888/224/3221225758/index.m3u8"
          ]
        },
        {
          "name": "CCTV-5+",
          "urls": [
            "http://183.207.248.71:80/cntv/live1/HD-8000k-1080P-cctv05plus/HD-8000k-1080P-cctv05plus",
            "http://39.134.24.24/PLTV/88888888/224/3221225718/index.m3u8"
          ]
        },
        {
          "name": "CCTV-6",
          "urls": [
            "http://183.207.248.71:80/cntv/live1/cctv-6/cctv-6",
            "http://39.134.24.24/PLTV/88888888/224/3221226027/index.m3u8",
            "http://39.134.24.24/PLTV/88888888/224/3221225708/index.m3u8",
            "http://223.110.241.206:6610/gitv/live1/G_CCTV-6-CQ/G_CCTV-6-CQ"
          ]
        },
        {
          "name": "CCTV-7",
          "urls": [
            "http://183.207.248.71:80/cntv/live1/HD-8000k-1080P-cctv7/HD-8000k-1080P-cctv7",
            "http://39.134.24.24/PLTV/88888888/224/3221225855/index.m3u8",
            "http://39.134.24.24/PLTV/88888888/224/3221225768/index.m3u8",
            "http://223.110.241.206:6610/cntv/live1/HD-12000k-1080P-cctv7/1.m3u8"
          ]
        },
        {
          "name": "CCTV-8",
          "urls": [
            "http://183.207.248.71:80/cntv/live1/HD-8000k-1080P-cctv8/HD-8000k-1080P-cctv8",
            "http://39.134.24.24/PLTV/88888888/224/3221226029/index.m3u8",
            "http://39.134.24.24/PLTV/88888888/224/3221225666/index.m3u8",
            "http://223.110.241.206:6610/gitv/live1/G_CCTV-8-CQ/G_CCTV-8-CQ"
          ]
        },
        {
          "name": "CCTV-9",
          "urls": [
            "http://183.207.248.71:80/cntv/live1/HD-8000k-1080P-cctv9/HD-8000k-1080P-cctv9",
            "http://39.134.24.24/PLTV/88888888/224/3221225672/index.m3u8",
            "http://223.110.241.206:6610/gitv/live1/G_CCTV-9-HD-265-5M/G_CCTV-9-HD-265-5M"
          ]
        },
        {
          "name": "CCTV-10",
          "urls": [
            "http://183.207.248.71:80/cntv/live1/HD-8000k-1080P-cctv10/HD-8000k-1080P-cctv10",
            "http://39.134.24.24/PLTV/88888888/224/3221225823/index.m3u8",
            "http://39.134.24.24/PLTV/88888888/224/3221225782/index.m3u8",
            "http://223.110.241.206:6610/cntv/live1/HD-8000k-1080P-cctv10/1.m3u8"
          ]
        },
        {
          "name": "CCTV-11",
          "urls": [
            "http://183.207.248.71:80/cntv/live1/n-cctv-11/n-cctv-11",
            "http://39.134.24.24/PLTV/88888888/224/3221225825/index.m3u8",
            "http://39.134.24.24/PLTV/88888888/224/3221225774/index.m3u8"
          ]
        },
        {
          "name": "CCTV-12",
          "urls": [
            "http://183.207.248.71:80/cntv/live1/HD-8000k-1080P-cctv12/HD-8000k-1080P-cctv12",
            "http://39.134.24.24/PLTV/88888888/224/3221225702/index.m3u8"
          ]
        },
        {
          "name": "CCTV-13",
          "urls": [
            "http://183.207.248.71:80/cntv/live1/cctv-13/cctv-13",
            "http://39.134.24.24/PLTV/88888888/224/3221225827/index.m3u8",
            "http://39.134.24.24/PLTV/88888888/224/3221225612/index.m3u8",
            "http://39.134.24.24/PLTV/88888888/224/3221225650/index.m3u8"
          ]
        },
        {
          "name": "CCTV-14",
          "urls": [
            "http://183.207.248.71:80/cntv/live1/HD-8000k-1080P-cctv14/HD-8000k-1080P-cctv14",
            "http://39.134.24.24/PLTV/88888888/224/3221225857/index.m3u8",
            "http://39.134.24.24/PLTV/88888888/224/3221225658/index.m3u8",
            "http://223.110.241.206:6610/cntv/live1/HD-8000k-1080P-cctv14/1.m3u8"
          ]
        },
        {
          "name": "CCTV-15",
          "urls": [
            "http://183.207.248.71:80/cntv/live1/n-cctv-15/n-cctv-15",
            "http://39.134.24.24/PLTV/88888888/224/3221225636/index.m3u8",
            "http://117.148.179.169/PLTV/88888888/224/3221231693/index.m3u8"
          ]
        },
        {
          "name": "CCTV-17",
          "urls": [
            "http://183.207.248.71:80/cntv/live1/HD-8000k-1080P-cctv17/HD-8000k-1080P-cctv17",
            "http://39.134.24.24/PLTV/88888888/224/3221225859/index.m3u8",
            "http://117.148.179.17/PLTV/88888888/224/3221229765/index.m3u8"
          ]
        },
        {
          "name": "CCTV-4K",
          "urls": [
            "http://liveop.cctv.cn/hls/4KHD/playlist.m3u8"
          ]
        },
        {
          "name": "4K花园影视",
          "urls": [
            "http://223.110.246.80/ott.js.chinamobile.com/PLTV/4/224/3221227749/index.m3u8"
          ]
        },
        {
          "name": "4K花园电影",
          "urls": [
            "http://223.110.246.80/ott.js.chinamobile.com/PLTV/4/224/3221227813/index.m3u8"
          ]
        },
        {
          "name": "4K体育赛事",
          "urls": [
            "http://39.134.39.31/PLTV/88888888/224/3221226227/index.m3u8"
          ]
        }
      ]
    },
    {
      "group": "卫视",
      "channels": [
        {
          "name": "安多卫视",
          "urls": [
            "http://183.207.248.71:80/cntv/live1/anduostv/anduostv"
          ]
        },
        {
          "name": "安徽卫视",
          "urls": [
            "http://183.207.248.71:80/cntv/live1/HD-8000k-1080P-anhuistv/HD-8000k-1080P-anhuistv",
            "http://39.134.24.24/PLTV/88888888/224/3221225847/index.m3u8",
            "http://39.134.24.24/PLTV/88888888/224/3221225638/index.m3u8"
          ]
        },
        {
          "name": "北京卫视",
          "urls": [
            "http://183.207.248.71:80/cntv/live1/HD-2500k-1080P-beijingstv/HD-2500k-1080P-beijingstv",
            "http://39.134.24.24/PLTV/88888888/224/3221225833/index.m3u8",
            "http://39.134.24.24/PLTV/88888888/224/3221225724/index.m3u8",
            "http://39.134.24.24/PLTV/88888888/224/3221225646/index.m3u8",
            "http://39.134.24.24/PLTV/88888888/224/3221225735/index.m3u8"
          ]
        },
        {
          "name": "兵团卫视",
          "urls": [
            "http://183.207.248.71:80/cntv/live1/SD-4000k-576P-bingtuanstv/SD-4000k-576P-bingtuanstv"
          ]
        },
        {
          "name": "重庆卫视",
          "urls": [
            "http://183.207.248.71:80/cntv/live1/HD-8000k-1080P-chongqingstv/HD-8000k-1080P-chongqingstv",
            "http://39.134.24.24/PLTV/88888888/224/3221225592/index.m3u8"
          ]
        },
        {
          "name": "东方卫视",
          "urls": [
            "http://39.134.24.24/PLTV/88888888/224/3221225676/index.m3u8",
            "http://39.134.24.24/PLTV/88888888/224/3221225835/index.m3u8",
            "http://39.134.24.24/PLTV/88888888/224/3221225622/index.m3u8",
            "http://39.134.24.24/PLTV/88888888/224/3221225976/index.m3u8"
          ]
        },
        {
          "name": "东南卫视",
          "urls": [
            "http://183.207.248.71:80/cntv/live1/n-dongnanstv/n-dongnanstv",
            "http://39.134.24.24/PLTV/88888888/224/3221225722/index.m3u8"
          ]
        },
        {
          "name": "甘肃卫视",
          "urls": [
            "http://183.207.248.71:80/cntv/live1/n-gansustv/n-gansustv",
            "http://39.134.24.24/PLTV/88888888/224/3221225714/index.m3u8"
          ]
        },
        {
          "name": "广东南方卫视",
          "urls": [
            "http://39.134.24.24/PLTV/88888888/224/3221225871/index.m3u8"
          ]
        },
        {
          "name": "广东卫视",
          "urls": [
            "http://183.207.248.71:80/cntv/live1/n-guangdongstv/n-guangdongstv",
            "http://39.134.24.24/PLTV/88888888/224/3221225692/index.m3u8"
          ]
        },
        {
          "name": "广西卫视",
          "urls": [
            "http://39.134.24.24/PLTV/88888888/224/3221225594/index.m3u8"
          ]
        },
        {
          "name": "贵州卫视",
          "urls": [
            "http://39.134.24.24/PLTV/88888888/224/3221225610/index.m3u8"
          ]
        },
        {
          "name": "海南卫视",
          "urls": [
            "http://39.134.24.24/PLTV/88888888/224/3221225614/index.m3u8"
          ]
        },
        {
          "name": "河北卫视",
          "urls": [
            "http://183.207.248.71:80/cntv/live1/n-hebeistv/n-hebeistv",
            "http://39.134.24.24/PLTV/88888888/224/3221225744/index.m3u8"
          ]
        },
        {
          "name": "河南卫视",
          "urls": [
            "http://39.134.24.24/PLTV/88888888/224/3221225716/index.m3u8"
          ]
        },
        {
          "name": "黑龙江卫视",
          "urls": [
            "http://183.207.248.71:80/cntv/live1/HD-8000k-1080P-heilongjiangstv/HD-8000k-1080P-heilongjiangstv",
            "http://39.134.24.24/PLTV/88888888/224/3221225690/index.m3u8"
          ]
        },
        {
          "name": "湖北卫视",
          "urls": [
            "http://183.207.248.71:80/cntv/live1/HD-2500k-1080P-hubeistv/HD-2500k-1080P-hubeistv",
            "http://39.134.24.24/PLTV/88888888/224/3221225674/index.m3u8"
          ]
        },
        {
          "name": "湖南卫视",
          "urls": [
            "http://183.207.248.71:80/cntv/live1/hunanstv/hunanstv",
            "http://39.134.24.24/PLTV/88888888/224/3221225616/index.m3u8"
          ]
        },
        {
          "name": "吉林卫视",
          "urls": [
            "http://39.134.24.24/PLTV/88888888/224/3221225804/index.m3u8"
          ]
        },
        {
          "name": "江苏卫视",
          "urls": [
            "http://183.207.248.71:80/cntv/live1/HD-2500k-1080P-jiangsustv/HD-2500k-1080P-jiangsustv",
            "http://39.134.24.24/PLTV/88888888/224/3221225602/index.m3u8",
            "http://39.134.24.24/PLTV/88888888/224/3221225734/index.m3u8"
          ]
        },
        {
          "name": "江西卫视",
          "urls": [
            "http://183.207.248.71:80/cntv/live1/jiangxistv/jiangxistv",
            "http://39.134.24.24/PLTV/88888888/224/3221225682/index.m3u8"
          ]
        },
        {
          "name": "康巴卫视",
          "urls": [
            "http://183.207.248.71:80/cntv/live1/SD-4000k-576P-kambatv/SD-4000k-576P-kambatv"
          ]
        },
        {
          "name": "辽宁卫视",
          "urls": [
            "http://39.134.24.24/PLTV/88888888/224/3221225726/index.m3u8"
          ]
        },
        {
          "name": "内蒙古卫视",
          "urls": [
            "http://39.134.24.24/PLTV/88888888/224/3221225626/index.m3u8"
          ]
        },
        {
          "name": "宁夏卫视",
          "urls": [
            "http://183.207.248.71:80/cntv/live1/n-ningxiastv/n-ningxiastv",
            "http://39.134.24.24/PLTV/88888888/224/3221225730/index.m3u8"
          ]
        },
        {
          "name": "青海安多卫视",
          "urls": [
            "http://39.134.24.24/PLTV/88888888/224/3221225875/index.m3u8"
          ]
        },
        {
          "name": "青海卫视",
          "urls": [
            "http://183.207.248.71:80/cntv/live1/n-qinghaistv/n-qinghaistv",
            "http://39.134.24.24/PLTV/88888888/224/3221225606/index.m3u8"
          ]
        },
        {
          "name": "山东卫视",
          "urls": [
            "http://183.207.248.71:80/cntv/live1/HD-2500k-1080P-shandongstv/HD-2500k-1080P-shandongstv",
            "http://39.134.24.24/PLTV/88888888/224/3221225841/index.m3u8",
            "http://39.134.24.24/PLTV/88888888/224/3221225796/index.m3u8"
          ]
        },
        {
          "name": "山西卫视",
          "urls": [
            "http://39.134.24.24/PLTV/88888888/224/3221225738/index.m3u8"
          ]
        },
        {
          "name": "陕西农林卫视",
          "urls": [
            "http://39.134.24.24/PLTV/88888888/224/3221225877/index.m3u8"
          ]
        },
        {
          "name": "陕西卫视",
          "urls": [
            "http://183.207.248.71:80/cntv/live1/n-shanxi1stv/n-shanxi1stv"
          ]
        },
        {
          "name": "深圳卫视",
          "urls": [
            "http://183.207.248.71:80/cntv/live1/HD-2500k-1080P-shenzhenstv/HD-2500k-1080P-shenzhenstv",
            "http://39.134.24.24/PLTV/88888888/224/3221225843/index.m3u8",
            "http://39.134.24.24/PLTV/88888888/224/3221225764/index.m3u8",
            "http://39.134.24.24/PLTV/88888888/224/3221225590/index.m3u8"
          ]
        },
        {
          "name": "四川卫视",
          "urls": [
            "http://183.207.248.71:80/cntv/live1/n-sichuanstv/n-sichuanstv",
            "http://39.134.24.24/PLTV/88888888/224/3221225704/index.m3u8"
          ]
        },
        {
          "name": "天津卫视",
          "urls": [
            "http://183.207.248.71:80/cntv/live1/HD-2500k-1080P-tianjinstv/HD-2500k-1080P-tianjinstv"
          ]
        },
        {
          "name": "云南卫视",
          "urls": [
            "http://183.207.248.71:80/cntv/live1/n-yntv1/n-yntv1",
            "http://39.134.24.24/PLTV/88888888/224/3221225696/index.m3u8"
          ]
        },
        {
          "name": "浙江卫视",
          "urls": [
            "http://39.134.24.24/PLTV/88888888/224/3221225642/index.m3u8"
          ]
        }
      ]
    },
    {
      "group": "NewTV",
      "channels": [
        {
          "name": "蜡笔小新",
          "urls": [
            "http://ye23.win/iptv/huya.php?id=11352970"
          ]
        },
        {
          "name": "NewTV爱情喜剧",
          "urls": [
            "http://183.207.248.71:80/cntv/live1/n-aiqingxj/n-aiqingxj"
          ]
        },
        {
          "name": "NewTV潮妈辣婆",
          "urls": [
            "http://183.207.248.71:80/cntv/live1/n-cmlapo/n-cmlapo"
          ]
        },
        {
          "name": "NewTV动作电影",
          "urls": [
            "http://183.207.248.71:80/cntv/live1/n-dongzuody/n-dongzuody"
          ]
        },
        {
          "name": "NewTV古装剧场",
          "urls": [
            "http://183.207.248.71:80/cntv/live1/n-guzhuangjc/n-guzhuangjc"
          ]
        },
        {
          "name": "NewTV黑莓电竞之夜",
          "urls": [
            "http://183.207.248.71:80/cntv/live1/wmyx/wmyx"
          ]
        },
        {
          "name": "NewTV黑莓电影",
          "urls": [
            "http://183.207.248.71:80/cntv/live1/HD-8000k-1080P-Supermovie/HD-8000k-1080P-Supermovie"
          ]
        },
        {
          "name": "NewTV黑莓动画",
          "urls": [
            "http://183.207.248.71:80/cntv/live1/donghuawg/donghuawg"
          ]
        },
        {
          "name": "NewTV家庭剧场",
          "urls": [
            "http://183.207.248.71:80/cntv/live1/n-jiatingjc/n-jiatingjc"
          ]
        },
        {
          "name": "NewTV金牌综艺",
          "urls": [
            "http://183.207.248.71:80/cntv/live1/n-saishijx/n-saishijx"
          ]
        },
        {
          "name": "NewTV精品大剧",
          "urls": [
            "http://183.207.248.71:80/cntv/live1/n-jdaju/n-jdaju"
          ]
        },
        {
          "name": "NewTV精品体育",
          "urls": [
            "http://183.207.248.71:80/cntv/live1/n-jtiyu/n-jtiyu"
          ]
        },
        {
          "name": "NewTV精品综合",
          "urls": [
            "http://183.207.248.71:80/cntv/live1/n-mingxingdp/n-mingxingdp"
          ]
        },
        {
          "name": "NewTV军旅剧场",
          "urls": [
            "http://183.207.248.71:80/cntv/live1/n-junlvjc/n-junlvjc"
          ]
        },
        {
          "name": "NewTV军事评论",
          "urls": [
            "http://183.207.248.71:80/cntv/live1/n-junshipl/n-junshipl"
          ]
        },
        {
          "name": "NewTV农业致富",
          "urls": [
            "http://183.207.248.71:80/cntv/live1/n-nongyezf/n-nongyezf"
          ]
        },
        {
          "name": "NewTV热播精选",
          "urls": [
            "http://183.207.248.71:80/cntv/live1/n-xiqumd/n-xiqumd"
          ]
        },
        {
          "name": "NewTV中国功夫",
          "urls": [
            "http://183.207.248.71:80/cntv/live1/n-gzkongfu/n-gzkongfu"
          ]
        }
      ]
    }
  ],
  "flags": [
    "youku",
    "qq",
    "iqiyi",
    "qiyi",
    "letv",
    "sohu",
    "tudou",
    "pptv",
    "mgtv",
    "wasu",
    "789pan",
    "bilibili"
  ],
  "spider": "https://gitee.com/daixiban/mycattv/raw/master/custom_spider.jar",
  "parses": [
    {
      "name": "Json并发",
      "type": 2,
      "url": "Parallel"
    },
    {
      "name": "Json轮询",
      "type": 2,
      "url": "Sequence"
    },
    {
      "name": "789pan",
      "type": 0,
      "url": "https://web.jiexi.work/777/?url="
    },
    {    
      "name": "json解析1",
      "url": "https://973.cuan.la:5901/973/api/api_best.php?pltfrom=1100&key=973&url=",
      "type": 1
    },
    {
      "name": "json解析2",
      "url": "http://jxgg.work/json.php?url=",
      "type": 1
    },
    {
      "name": "json解析3",
      "url": "http://jx.vipmv.co/json3/?url=",
      "type": 1
    },
    {
      "name": "json解析4",
      "url": "http://play.bichangzw.cn/jianghu/json/?url=",
      "type": 1
    },
    {
      "name": "json解析5",
      "url": "http://m.ynnyk.cc/home/api?type=ys&uid=653025&key=egnpqrtCHLRVWY0459&url=",
      "type": 1
    },
    {
      "name": "json解析6",
      "url": "https://bdjx.shoujick.com/json1231/?url=",
      "type": 1
    },
    {
      "name": "json解析7",
      "url": "http://play.bichangzw.cn/jianghu/json/?url=",
      "type": 1
    },
    {
      "name": "json解析8",
      "url": "http://user.lkflv.com/analysis/json/?uid=38&my=acdklnzBDEHJNPSU69&url=",
      "type": 1
    },
    {
      "name": "json解析9",
      "url": "http://jx.vipmv.co/json3/?url=",
      "type": 1
    },
    {
      "name": "json解析10",
      "url": "https://jiexi.ysgc.xyz/home/api?type=ys&uid=29893&key=hkptuvxyACFHJRY078&url=",
      "type": 1
    },
    {
      "name": "json解析11",
      "url": "https://vip.byteamone.cn/api/?key=vpO0packXeAp4XYCnA&url=",
      "type": 1
    },
    {
      "name": "json解析12",
      "url": "https://api.shengqiankuaitao.cn/api/?key=I7iOCx9465knkzUo5H&url=",
      "type": 1
    },
    {
      "name": "json解析13",
      "url": "https://api.jiexi.one/api/?key=Sv5qJ05C6Oy62kCnEc&url=",
      "type": 1
    },
    {
      "name": "json解析14",
      "url": "https://jiexi.bdjxfw.com/home/api?type=ys&uid=226493678&key=bgmnouzCEHIKLMST29&url=",
      "type": 1
    },
    {
      "name": "json解析15",
      "url": "https://svip.renrenmi.cc:2222/api/?key=nn4j8rukPXSVzR78E9&url=",
      "type": 1
    },
    {
      "name": "json解析16",
      "url": "https://vip.mengx.vip/home/api?type=ys&uid=18613&key=bknprsxCILRTUVYZ79&url=",
      "type": 1
    },
    {
      "name": "json解析17",
      "url": "http://vip.mengx.vip/home/api?type=ys&uid=3249696&key=aefqrtuwxyEFHKNOQY&url=",
      "type": 1
    },
    {
      "name": "json解析18",
      "url": "http://cache.languang.icu:88/didi.php?url=",
      "type": 1
    },
    {
      "name": "json解析19",
      "url": "https://jiexi.bdjxfw.com/home/api?type=ys&uid=168882504&key=adfhjknyzACDFJOQU9&url=",
      "type": 1
    },
    {
      "name": "Jsongbxy",
      "type": 1,
      "url": "https://xt.gbxy.net.cn/api/?key=7gAmfK5typSVsg2Qnr&url="
    },
    {
      "name": "Jsonvipmv",
      "type": 1,
      "url": "http://jx.vipmv.co/json3/?url="
    },
    {
      "name": "Jsonzhaikanys",
      "type": 1,
      "url": "http://www.zhaikanys.com/jx.php?url="
    },
    {
      "name": "Jsonmouliuk",
      "type": 1,
      "url": "https://dd.mouliuk.com/home/api?type=ys&uid=12293&key=acfhkovxzDEIMPWX29&url="
    },
    {
      "name": "Jsonbyteamone",
      "type": 1,
      "url": "https://vip.byteamone.cn/api/?key=vpO0packXeAp4XYCnA&url="
    },
    {
      "name": "Json.VodJX1",
      "type": 1,
      "url": "https://www.vodjx.top/api/?key=XSQzk8KFK1I7FfPK5X&url="
    },
    {
      "name": "Json.VodJX2",
      "type": 1,
      "url": "http://admin.vodjx.top/json.php?url="
    },
    {
      "name": "json52nn",
      "type": 1,
      "url": "https://www.52nn.online/home/api?type=ys&uid=10086&key=dhjrtvwAGJLSTVWZ19&url="
    },
    {
      "name": "高清解析1",
      "type": 0,
      "url": "https://cdn.yangju.vip/k/?url="
    },
    {
      "name": "高清解析2",
      "type": 0,
      "url": "https://jx.mmkv.cn/tv.php?url="
    },
    {
      "name": "高清解析3",
      "type": 0,
      "url": "https://okjx.cc/?url="
    },
    {
      "name": "高清解析4",
      "type": 0,
      "url": "https://jx.mw0.cc/?url="
    },
    {
      "name": "高清解析5",
      "type": 0,
      "url": "http://jx.quanmingjiexi.com/?url="
    },
    {
      "name": "高清解析6",
      "type": 0,
      "url": "https://parse.123mingren.com/Bei/?url="
    },
    {
      "name": "高清解析7",
      "type": 0,
      "url": "https://parse.123mingren.com/?url="
    },
    {
      "name": "高清解析8",
      "type": 0,
      "url": "https://api.vodjx.top/?url="
    },
    {
      "name": "暮光解析",
      "url": "https://muguang.mgtv.com.muguangys.com/jiexi.php?url="
    },
    {
      "name": "Parwix解析",
      "url": "https://vip.parwix.com:4433/player/?url="
    },
    {
      "name": "Tkys解析",
      "url": "https://play.tkys.tv/?url="
    },
    {
      "name": "M2090解析4K",
      "url": "https://m2090.com/?url="
    },
    {
      "name": "萌果解析",
      "url": "http://jx.cooxs.com/?url="
    },
    {
      "name": "360解析",
      "url": "https://jx.ns360.cn/1080/jiexi/?url="
    },
    {
      "name": "八亿解析4K",
      "url": "http://vip.8bys.cn/?url="
    },
    {
      "name": "JJXX解析",
      "url": "http://jjxx.me/?url="
    },
    {
      "name": "老板解析",
      "url": "https://vip.laobandq.com/jiexi.php?url="
    },
    {
      "name": "白玉解析",
      "url": "http://api.baiyug.vip/index.php?url="
    },
    {
      "name": "纯净解析",
      "url": "https://z1.m1907.cn/?jx="
    },
    {
      "name": "高速接口",
      "url": "https://jsap.attakids.com/?url="
    },
    {
      "name": "B站解析",
      "url": "https://www.cuan.la/m3u8.php?url="
    },
    {
      "name": "虾米",
      "url": "https://jx.xmflv.com/?url="
    },
    {
      "name": "Ckplayer",
      "url": "https://www.ckplayer.vip/jiexi/?url="
    },
    {
      "name": "BL解析",
      "url": "https://vip.bljiex.com/?v="
    },
    {
      "name": "CCyjjd",
      "url": "https://ckmov.ccyjjd.com/ckmov/?url="
    },
    {
      "name": "M3U8",
      "url": "https://jx.m3u8.tv/jiexi/?url="
    },
    {
      "name": "老板",
      "url": "https://vip.laobandq.com/jiexi.php?url="
    },
    {
      "name": "Mao解析",
      "url": "https://qd.hxys.tv/m3u8.php?url="
    },
    {
      "name": "盘古",
      "url": "https://www.pangujiexi.cc/jiexi.php?url="
    },
    {
      "name": "SSAMAO",
      "url": "https://www.ssamao.com/jx/?url="
    },
    {
      "name": "无极",
      "url": "https://da.wujiys.com/?url="
    },
    {
      "name": "618G",
      "url": "https://jx.618g.com/?url="
    },
    {
      "name": "ckmov",
      "url": "https://www.ckmov.vip/api.php?url="
    },
    {
      "name": "迪奥",
      "url": "https://123.1dior.cn/?url="
    },
    {
      "name": "福星",
      "url": "https://jx.popo520.cn/jiexi/?url="
    },
    {
      "name": "RDHK",
      "url": "https://jx.rdhk.net/?v="
    },
    {
      "name": "H8解析",
      "url": "https://www.h8jx.com/jiexi.php?url="
    },
    {
      "name": "解析la",
      "url": "https://api.jiexi.la/?url="
    },
    {
      "name": "久播",
      "url": "https://jx.jiubojx.com/vip.php?url="
    },
    {
      "name": "九八",
      "url": "https://jx.youyitv.com/?url="
    },
    {
      "name": "乐喵",
      "url": "https://jx.hao-zsj.cn/vip/?url="
    },
    {
      "name": "MUTV",
      "url": "https://jiexi.janan.net/jiexi/?url="
    },
    {
      "name": "明日",
      "url": "https://jx.yingxiangbao.cn/vip.php?url="
    },
    {
      "name": "磨菇",
      "url": "https://jx.wzslw.cn/?url="
    },
    {
      "name": "维多",
      "url": "https://jx.ivito.cn/?url="
    },
    {
      "name": "小蒋",
      "url": "https://www.kpezp.cn/jlexi.php?url="
    },
    {
      "name": "小狼",
      "url": "https://jx.yaohuaxuan.com/?url="
    },
    {
      "name": "智能",
      "url": "https://vip.kurumit3.top/?v="
    },
    {
      "name": "星驰",
      "url": "https://vip.cjys.top/?url="
    },
    {
      "name": "星空",
      "url": "http://60jx.com/?url="
    },
    {
      "name": "月亮",
      "url": "https://api.yueliangjx.com/?url="
    },
    {
      "name": "0523",
      "url": "https://go.yh0523.cn/y.cy?url="
    },
    {
      "name": "云端",
      "url": "https://jx.ergan.top/?url="
    },
    {
      "name": "66",
      "url": "https://api.3jx.top/vip/?url="
    },
    {
      "name": "116",
      "url": "https://jx.116kan.com/?url="
    },
    {
      "name": "200",
      "url": "https://vip.66parse.club/?url="
    },
    {
      "name": "云析",
      "url": "https://jx.yparse.com/index.php?url="
    },
    {
      "name": "8090",
      "url": "https://www.8090g.cn/?url="
    },
    {
      "name": "PAR",
      "url": "https://jx.ihuikr.com/player/?url="
    },
    {
      "name": "瓜皮TV",
      "url": "http://jxx.dijiaxia.com/?url="
    },
    {
      "name": "chok",
      "url": "https://gai4.gitee.io/chok/jx.html?url="
    },
    {
      "name": "日批",
      "url": "https://jx.ns360.cn/1080/jiexi/?url="
    },
    {
      "name": "初心",
      "url": "https://player.5znn.pro/jiexi.php?url="
    },
    {
      "name": "4K影视",
      "url": "https://jx.4kdv.com/?url="
    },
    {
      "name": "VIP尊享",
      "url": "https://player.maqq.cn/?url="
    },
    {
      "name": "追剧达人",
      "url": "https://vip123kan.vip/m3u8.php?url="
    },
    {
      "name": "云解析",
      "url": "https://jx.aidouer.net/?url="
    },
    {
      "name": "游艺",
      "url": "https://api.u1o.net/?url="
    },
    {
      "name": "人人迷",
      "url": "https://jx.renrenmi.cc/?url="
    },
    {
      "name": "新月亮",
      "url": "https://vip.jianjians.com/?url="
    },
    {
      "name": "番茄",
      "url": "https://dp.8b5q.cn/dplayer/?url="
    },
    {
      "name": "麻瓜",
      "url": "http://player.maguays.cc/?url="
    },
    {
      "name": "樱花",
      "url": "https://buaon.xyz/?url="
    },
    {
      "name": "呆呆",
      "url": "https://jx.daidaitv.top:43810/?url="
    },
    {
      "name": "全能解析",
      "url": "http://video.isyour.love/player/getplayer?url="
    }
  ],
  "ijk": [
    {
      "group": "软解码",
      "options": [
        {
          "category": 4,
          "name": "opensles",
          "value": "0"
        },
        {
          "category": 4,
          "name": "overlay-format",
          "value": "842225234"
        },
        {
          "category": 4,
          "name": "framedrop",
          "value": "1"
        },
        {
          "category": 4,
          "name": "soundtouch",
          "value": "1"
        },
        {
          "category": 4,
          "name": "start-on-prepared",
          "value": "1"
        },
        {
          "category": 1,
          "name": "http-detect-range-support",
          "value": "0"
        },
        {
          "category": 1,
          "name": "fflags",
          "value": "fastseek"
        },
        {
          "category": 2,
          "name": "skip_loop_filter",
          "value": "48"
        },
        {
          "category": 4,
          "name": "reconnect",
          "value": "1"
        },
        {
          "category": 4,
          "name": "max-buffer-size",
          "value": "5242880"
        },
        {
          "category": 4,
          "name": "enable-accurate-seek",
          "value": "0"
        },
        {
          "category": 4,
          "name": "mediacodec",
          "value": "0"
        },
        {
          "category": 4,
          "name": "mediacodec-auto-rotate",
          "value": "0"
        },
        {
          "category": 4,
          "name": "mediacodec-handle-resolution-change",
          "value": "0"
        },
        {
          "category": 4,
          "name": "mediacodec-hevc",
          "value": "0"
        }
      ]
    },
    {
      "group": "硬解码",
      "options": [
        {
          "category": 4,
          "name": "opensles",
          "value": "0"
        },
        {
          "category": 4,
          "name": "overlay-format",
          "value": "842225234"
        },
        {
          "category": 4,
          "name": "framedrop",
          "value": "1"
        },
        {
          "category": 4,
          "name": "soundtouch",
          "value": "1"
        },
        {
          "category": 4,
          "name": "start-on-prepared",
          "value": "1"
        },
        {
          "category": 1,
          "name": "http-detect-range-support",
          "value": "0"
        },
        {
          "category": 1,
          "name": "fflags",
          "value": "fastseek"
        },
        {
          "category": 2,
          "name": "skip_loop_filter",
          "value": "48"
        },
        {
          "category": 4,
          "name": "reconnect",
          "value": "1"
        },
        {
          "category": 4,
          "name": "max-buffer-size",
          "value": "5242880"
        },
        {
          "category": 4,
          "name": "enable-accurate-seek",
          "value": "0"
        },
        {
          "category": 4,
          "name": "mediacodec",
          "value": "1"
        },
        {
          "category": 4,
          "name": "mediacodec-auto-rotate",
          "value": "1"
        },
        {
          "category": 4,
          "name": "mediacodec-handle-resolution-change",
          "value": "1"
        },
        {
          "category": 4,
          "name": "mediacodec-hevc",
          "value": "1"
        }
      ]
    }
  ],
  "ads": [
    "mimg.0c1q0l.cn",
    "www.googletagmanager.com",
    "www.google-analytics.com",
    "mc.usihnbcq.cn",
    "mg.g1mm3d.cn",
    "mscs.svaeuzh.cn",
    "cnzz.hhttm.top",
    "tp.vinuxhome.com",
    "cnzz.mmstat.com",
    "www.baihuillq.com",
    "s23.cnzz.com",
    "z3.cnzz.com",
    "c.cnzz.com",
    "stj.v1vo.top",
    "z12.cnzz.com",
    "img.mosflower.cn",
    "tips.gamevvip.com",
    "ehwe.yhdtns.com",
    "xdn.cqqc3.com",
    "www.jixunkyy.cn",
    "sp.chemacid.cn",
    "hm.baidu.com",
    "s9.cnzz.com",
    "z6.cnzz.com",
    "um.cavuc.com",
    "mav.mavuz.com",
    "wofwk.aoidf3.com",
    "z5.cnzz.com",
    "xc.hubeijieshikj.cn",
    "tj.tianwenhu.com",
    "xg.gars57.cn",
    "k.jinxiuzhilv.com",
    "cdn.bootcss.com",
    "ppl.xunzhuo123.com",
    "xomk.jiangjunmh.top",
    "img.xunzhuo123.com",
    "z1.cnzz.com",
    "s13.cnzz.com",
    "xg.huataisangao.cn",
    "z7.cnzz.com",
    "xg.huataisangao.cn",
    "z2.cnzz.com",
    "s96.cnzz.com",
    "q11.cnzz.com",
    "thy.dacedsfa.cn",
    "xg.whsbpw.cn",
    "s19.cnzz.com",
    "z8.cnzz.com",
    "s4.cnzz.com",
    "f5w.as12df.top",
    "ae01.alicdn.com",
    "www.92424.cn",
    "k.wudejia.com",
    "vivovip.mmszxc.top",
    "qiu.xixiqiu.com",
    "cdnjs.hnfenxun.com",
    "cms.qdwght.com"
  ]
}
