{
  "ua": "",
  "homeUrl": "https://www.98net.com",
  "cateNode": "//ul[contains(@class, 'stui-header__menu')]/li[@class='active']/a[contains(@href, 'ys')]",
  "cateName": "/text()",
  "cateId": "/@href",
  "cateIdR": "",
  "cateManual":{
   "大陸":"jbgcj",
   "動作":"jbdzp",
   "愛情":"jbaqp",
   "科幻":"jbkhp",
   "動漫":"jbdm",
   "劇情":"jbjqp",
   "台灣":"jbtwj",
   "香港":"jbxgj",
   "日本":"jbrbj",
   "韓國":"jbhgj",
   "歐美":"jbomj",
   "綜藝":"jbzy"
   },
  "homeVodNode": "//ul[contains(@class, 'stui-vodlist')]/li/div[contains(@class,'stui-vodlist__box')]/a[contains(@class,'stui-vodlist__thumb')]",
  "homeVodName": "/@title",
  "homeVodId": "/@href",
  "homeVodIdR": "\\S+s/(\\d+).html",
  "homeVodImg": "/@data-original",
  "homeVodImgR": "\\S+(http\\S+)",
  "homeVodMark": "/span[contains(@class,'pic-text')]/text()",
  "cateUrl": "https://www.98net.com/top/{cateId}/page/{catePg}/year/2021.html",
  "cateVodNode": "//ul[contains(@class,'stui-vodlist')]/li/div/a[contains(@class,'stui-vodlist__thumb')]",
  "cateVodName": "/@title",
  "cateVodId": "/@href",
  "cateVodIdR": "\\S+v/(\\d+).html",
  "cateVodImg": "/@data-original",
  "cateVodImgR": "\\S+(http\\S+)",
  "cateVodMark": "/span[contains(@class,'pic-text')]/text()",
  "dtUrl": "https://www.98net.com/tv/{vid}.html",
  "dtNode": "//body",                                                               
  "dtName": "//div[@class='stui-content__thumb']/a[contains(@class,'stui-vodlist__thumb')]/@title",
  "dtNameR": "",
  "dtImg": "//div[@class='stui-content__thumb']/a[contains(@class,'stui-vodlist__thumb')]/img/@data-original",
  "dtImgR": "\\S+(http\\S+)",
  "dtCate": "//div[@class='stui-content__detail']//span[contains(@class,'text-muted') and contains(text(), '分类')]/following-sibling::*/text()",
  "dtCateR": "",
  "dtYear": "//div[@class='stui-content__detail']//span[contains(@class,'text-muted') and contains(text(), '年份')]/following-sibling::*/text()",
  "dtYearR": "",
  "dtArea": "//div[@class='stui-content__detail']//span[contains(@class,'text-muted') and contains(text(), '地区')]/following-sibling::*/text()",
  "dtAreaR": "",
  "dtMark": "//div[@class='stui-content__detail']//span[contains(@class,'text-muted') and contains(text(), '更新')]/following-sibling::*/text()",
  "dtMarkR": "",
  "dtActor": "//div[@class='stui-content__detail']//span[contains(@class,'text-muted') and contains(text(), '主演')]/following-sibling::*/text()",
  "dtActorR": "",
  "dtDirector": "//div[@class='stui-content__detail']//span[contains(@class,'text-muted') and contains(text(), '导演')]/following-sibling::*/text()",
  "dtDirectorR": "",
  "dtFromNode": "//a[@data-toggle='tab' and contains(@href, 'playlist')]",
  "dtFromName": "/text()",
  "dtFromNameR": "",
  "dtUrlNode": "//div[contains(@class,'tab-content')]/div[contains(@id, 'playlist')]",
  "dtUrlSubNode": "//li/a",
  "dtUrlId": "@href",
  "dtUrlIdR": "\\S+y/(\\S+).html",
  "dtUrlName": "/text()",
  "dtUrlNameR": "",
  "playUrl": "https://www.98net.com/play/{playUrl}.html",
  "playUa": "",
  "searchUrl": "https://www.98net.com/index.php/ajax/suggest?mid=1&wd={wd}&limit=10",
  "scVodNode": "json:list",
  "scVodName": "name",
  "scVodId": "id",
  "scVodIdR": "",
  "scVodImg": "pic",
  "scVodMark": ""
}