{
  "ua": "",
  "homeUrl": "http://www.lezhutv.com",
  "cateNode": "//div[contains(@class,'head')]/div[contains(@class, 'nav')]/a[contains(@href,'type')]",
  "cateName": "/text()",
  "cateId": "/@href",
  "cateIdR": "/type/(\\S+).html",
  "cateManual": {
    "电影": "1",
    "连续剧": "2",
    "动漫": "4",
    "韩剧": "14",
    "综艺": "3"
  },
  "homeVodNode": "//ul[contains(@class, 'tbox_m')]/li[contains(@class,'vbox')]/a[contains(@class,'vbox_t')]",
  "homeVodName": "/@title",
  "homeVodId": "/@href",
  "homeVodIdR": "/detail/(\\w+).html",
  "homeVodImg": "/@data-original",
  "homeVodImgR": "\\S+(http\\S+)",
  "homeVodMark": "/span/text()",
  "cateUrl": "http://www.lezhutv.com/type/{cateId}-{catePg}.html",
  "cateVodNode": "//ul[contains(@class, 'tbox_m')]/li[contains(@class,'vbox')]/a[contains(@class,'vbox_t')]",
  "cateVodName": "/@title",
  "cateVodId": "/@href",
  "cateVodIdR": "/detail/(\\w+).html",
  "cateVodImg": "/@data-original",
  "cateVodImgR": "\\S+(http\\S+)",
  "cateVodMark": "/span/text()",
  "dtUrl": "http://www.lezhutv.com/detail/{vid}.html",
  "dtNode": "//body",
  "dtName": "//div[@class='data']/h4/text()",
  "dtNameR": "",
  "dtImg": "//div[@class='dbox']/div[contains(@class,'img item-lazy')]/@data-original",
  "dtImgR": "\\S+(http\\S+)",
  "dtCate": "//span[contains(text(), '分类')]/following-sibling::*/text()",
  "dtCateR": "",
  "dtYear": "//span[contains(text(), '年份')]/following-sibling::*/text()",
  "dtYearR": "",
  "dtArea": "//span[contains(text(), '地区')]/following-sibling::*/text()",
  "dtAreaR": "",
  "dtMark": "//span[contains(text(), '更新')]/following-sibling::*/text()",
  "dtMarkR": "",
  "dtActor": "//p[@class='act']/span[contains(text(), '主演')]/parent::text()",
  "dtActorR": "",
  "dtDirector": "//p[@class='dir']/span[contains(text(), '导演')]/parent::text()",
  "dtDirectorR": "",
  "dtDesc": "//div[@class='tbox_js']/text()",
  "dtDescR": "",
  "dtFromNode": "//div[contains(@class, 'tbox_t')]/h3/i[contains(@class, 'icon-pin')]/parent::*",
  "dtFromName": "concat('播放源',count(parent::*/preceding::*/div[contains(@class, 'tbox_t')]/h3/i[contains(@class, 'icon-pin')]) + 1)",
  "dtFromNameR": "(\\S+).0",
  "dtUrlNode": "//div[contains(@class,'tabs_block')]/ul[contains(@class, 'list_block show')]",
  "dtUrlSubNode": "/li/a",
  "dtUrlId": "@href",
  "dtUrlIdR": "/play/(\\S+).html",
  "dtUrlName": "/text()",
  "dtUrlNameR": "",
  "playUrl": "http://www.lezhutv.com/play/{playUrl}.html",
  "playUa": "",
  "searchUrl": "http://www.lezhutv.com/index.php/ajax/suggest?mid=1&wd={wd}&limit=10",
  "scVodNode": "json:list",
  "scVodName": "name",
  "scVodId": "id",
  "scVodIdR": "",
  "scVodImg": "pic",
  "scVodMark": ""
}
